\relax 
\providecommand\hyper@newdestlabel[2]{}
\providecommand\HyperFirstAtBeginDocument{\AtBeginDocument}
\HyperFirstAtBeginDocument{\ifx\hyper@anchor\@undefined
\global\let\oldcontentsline\contentsline
\gdef\contentsline#1#2#3#4{\oldcontentsline{#1}{#2}{#3}}
\global\let\oldnewlabel\newlabel
\gdef\newlabel#1#2{\newlabelxx{#1}#2}
\gdef\newlabelxx#1#2#3#4#5#6{\oldnewlabel{#1}{{#2}{#3}}}
\AtEndDocument{\ifx\hyper@anchor\@undefined
\let\contentsline\oldcontentsline
\let\newlabel\oldnewlabel
\fi}
\fi}
\global\let\hyper@last\relax 
\gdef\HyperFirstAtBeginDocument#1{#1}
\providecommand\HyField@AuxAddToFields[1]{}
\providecommand\HyField@AuxAddToCoFields[2]{}
\@writefile{toc}{\contentsline {chapter}{\numberline {1}Introduction}{2}{chapter.1}}
\@writefile{lof}{\addvspace {10\p@ }}
\@writefile{lot}{\addvspace {10\p@ }}
\@writefile{toc}{\contentsline {section}{\numberline {1.1}Project Overview}{2}{section.1.1}}
\@writefile{toc}{\contentsline {section}{\numberline {1.2}High Level System Design}{2}{section.1.2}}
\@writefile{toc}{\contentsline {subsection}{\numberline {1.2.1}Software}{2}{subsection.1.2.1}}
\@writefile{toc}{\contentsline {subsection}{\numberline {1.2.2}Hardware}{3}{subsection.1.2.2}}
\@writefile{lof}{\contentsline {figure}{\numberline {1.1}{\ignorespaces The series of steps required for an object to pass through the system}}{3}{figure.1.1}}
\@writefile{toc}{\contentsline {chapter}{\numberline {2}Software Design}{4}{chapter.2}}
\@writefile{lof}{\addvspace {10\p@ }}
\@writefile{lot}{\addvspace {10\p@ }}
\@writefile{toc}{\contentsline {section}{\numberline {2.1}Overview}{4}{section.2.1}}
\@writefile{lof}{\contentsline {figure}{\numberline {2.1}{\ignorespaces Function call graph generated with \href  {https://www.gson.org/egypt/}{\textbf  {\relax $\@@underline {\hbox {\leavevmode {\color  {blue}egypt}}}\mathsurround \z@ $\relax }}.}}{4}{figure.2.1}}
\newlabel{fig:call graph}{{2.1}{4}{Function call graph generated with \href {https://www.gson.org/egypt/}{\textbf {\underline {\textcolor {blue}{egypt}}}}}{figure.2.1}{}}
\@writefile{toc}{\contentsline {section}{\numberline {2.2}Function Descriptions}{5}{section.2.2}}
\@writefile{toc}{\contentsline {subsection}{\numberline {2.2.1}Main Program Functions}{5}{subsection.2.2.1}}
\@writefile{toc}{\contentsline {subsection}{\numberline {2.2.2}gpiolib\_pinfuncs Functions}{7}{subsection.2.2.2}}
\newlabel{pinfunc functions}{{2.2.2}{7}{gpiolib\_pinfuncs Functions}{subsection.2.2.2}{}}
\@writefile{toc}{\contentsline {section}{\numberline {2.3}System Dependence}{7}{section.2.3}}
\@writefile{toc}{\contentsline {section}{\numberline {2.4}The Main State Machine}{8}{section.2.4}}
\newlabel{statemachine}{{2.4}{8}{The Main State Machine}{section.2.4}{}}
\@writefile{toc}{\contentsline {section}{\numberline {2.5}Configuration File}{9}{section.2.5}}
\@writefile{toc}{\contentsline {section}{\numberline {2.6}Log File}{9}{section.2.6}}
\@writefile{toc}{\contentsline {section}{\numberline {2.7}Watchdog}{9}{section.2.7}}
\@writefile{toc}{\contentsline {chapter}{\numberline {3}Further Information}{10}{chapter.3}}
\@writefile{lof}{\addvspace {10\p@ }}
\@writefile{lot}{\addvspace {10\p@ }}
\@writefile{toc}{\contentsline {section}{\numberline {3.1}Testing}{10}{section.3.1}}
\@writefile{toc}{\contentsline {section}{\numberline {3.2}Miscellaneous}{10}{section.3.2}}
\@writefile{toc}{\contentsline {subsection}{\numberline {3.2.1}Extras}{10}{subsection.3.2.1}}
\@writefile{toc}{\contentsline {subsection}{\numberline {3.2.2}Limitations}{11}{subsection.3.2.2}}
\@writefile{toc}{\contentsline {subsection}{\numberline {3.2.3}Reflection}{11}{subsection.3.2.3}}
\@writefile{toc}{\contentsline {chapter}{\numberline {4}Appendix}{12}{chapter.4}}
\@writefile{lof}{\addvspace {10\p@ }}
\@writefile{lot}{\addvspace {10\p@ }}
\@writefile{toc}{\contentsline {section}{\numberline {4.1}Source Code}{12}{section.4.1}}
\@writefile{toc}{\contentsline {section}{\numberline {4.2}Peer Contributions}{12}{section.4.2}}
